<?xml version="1.0" encoding="utf-8"?>
<!-- Generator: Adobe Illustrator 15.0.0, SVG Export Plug-In . SVG Version: 6.00 Build 0)  -->
<!DOCTYPE svg PUBLIC "-//W3C//DTD SVG 1.1//EN" "http://www.w3.org/Graphics/SVG/1.1/DTD/svg11.dtd">
<svg version="1.1" id="Calque_1" xmlns="http://www.w3.org/2000/svg" xmlns:xlink="http://www.w3.org/1999/xlink" x="0px" y="0px"
	 width="571.429px" height="285.714px" viewBox="0 0 571.429 285.714" enable-background="new 0 0 571.429 285.714"
	 xml:space="preserve">
<path fill="none" stroke="#000000" stroke-miterlimit="10" d="M17.255,285.922c0-17.76,0-14.706,0-18.683
	c0-7.64-0.116-12.37,6.77-19.936c20.063-22.047,55.286-54.937,78.73-78.381c132.764-132.764,457.282-31.933,457.282,117"/>
</svg>
